{
  "name": "WeMobMediation_Toutiao",
  "version": "2.1.0.1.4",
  "summary": "Toutiao Adapters for mediating through WeSdk.",
  "homepage": "https://github.com/webeyemob/WeSdk-iOS-Pub",
  "license": {
    "type": "MIT"
  },
  "authors": "WeSdk",
  "platforms": {
    "ios": "8.0"
  },
  "source": {
    "git": "https://github.com/webeyemob/WeSdk-iOS-Pub.git",
    "tag": "toutiao-2.1.0.1.4"
  },
  "vendored_frameworks": "WeMobMediation_Toutiao/2.1.0.1.4/WeMobMediation_Toutiao.framework",
  "dependencies": {
    "Bytedance-UnionAD": [
      "~> 2.1.0.1"
    ],
    "WeMobSdk": [
      "~> 1.2.1"
    ]
  }
}
