{
  "name": "FaceAuth",
  "version": "1.0.2",
  "summary": "Face Movement Detector",
  "description": "Face Detection Framework that detect face movemnet is Straight, Left or Up. It make use of firebase ML-Kit to detect face movement. It is as easy to integrate just import this required framework and you are all set up for the tasl of face detection.",
  "homepage": "https://bitbucket.org/%7B5ca15cdf-0750-4d9c-862f-cecb5726d419%7D/",
  "license": "MIT",
  "authors": {
    "Carlos": "carlos.olmedo@nodalblock.com"
  },
  "platforms": {
    "ios": "10.0"
  },
  "source": {
    "git": "https://Shiffa_khurana2017:welcome2india@bitbucket.org/nodalblock_projects/onboarding-lib-ios",
    "commit": "b856469",
    "tag": "1.0.2"
  },
  "swift_versions": "5.0",
  "source_files": [
    "FaceAuth/**/*.swift",
    "FaceAuth/Resources/*"
  ],
  "static_framework": true,
  "dependencies": {
    "Firebase": [

    ],
    "Firebase/Analytics": [

    ],
    "Firebase/MLVision": [

    ],
    "Firebase/MLVisionFaceModel": [

    ],
    "Firebase/MLVisionObjectDetection": [

    ],
    "Firebase/MLVisionAutoML": [

    ]
  },
  "swift_version": "5.0"
}
