{
  "name": "SOMHeaderbiddingSDK",
  "version": "2.2.2",
  "summary": "The Headerbidding SDK for your Apps ad integration with SevenOne Media.",
  "description": "The SDK by SevenOne Media enables your App to perform Header Bidding with the YieldProbe and Amazon network leading to an improved ad revenue.",
  "homepage": "https://www.sevenonemedia.de",
  "license": {
    "type": "SevenOne Media Platform License",
    "file": "LICENSE"
  },
  "authors": {
    "brehmjuNL": "GITHub"
  },
  "platforms": {
    "ios": "9.0"
  },
  "swift_versions": "4.2",
  "source": {
    "http": "https://adserver.71i.de/global_js/AppConfig/AppSdk/SOMHeaderbiddingSDK-2.2.2.zip"
  },
  "ios": {
    "vendored_frameworks": [
      "DTBiOSSDK.framework",
      "SOMHeaderbiddingSDK.framework"
    ]
  },
  "static_framework": true,
  "dependencies": {
    "Google-Mobile-Ads-SDK": [

    ],
    "SOMCore": [

    ]
  },
  "requires_arc": true,
  "swift_version": "4.2"
}
