{
  "name": "JMaterialTopViewController",
  "version": "0.1.0",
  "summary": "一个顶部标签选择控制器",
  "description": "TODO: Add long description of the pod here.",
  "homepage": "https://github.com/kkkk520/JMaterialTopViewController",
  "license": {
    "type": "MIT",
    "file": "LICENSE"
  },
  "authors": {
    "jun": "abc@gmail.com"
  },
  "source": {
    "git": "https://github.com/kkkk520/JMaterialTopViewController.git",
    "tag": "0.1.0"
  },
  "platforms": {
    "ios": "8.0"
  },
  "source_files": "JMaterialTopViewController/Classes/**/*"
}
