{
  "name": "ISDZhimaFacePlugin",
  "version": "1.0.0",
  "summary": "Zhima Face plugin",
  "homepage": "https://anquan.58.com/",
  "license": {
    "type": "MIT"
  },
  "authors": {
    "ChingHan": "chinghan9822@gmail.com"
  },
  "source": {
    "git": "http://igit.58corp.com/XxzlNative/ISDZhimaFacePluginPods.git",
    "tag": "1.0.0"
  },
  "platforms": {
    "ios": "8.0"
  },
  "requires_arc": true,
  "frameworks": [
    "AVFoundation",
    "Accelerate",
    "Security",
    "SystemConfiguration",
    "CoreMedia",
    "AudioToolbox",
    "CoreTelephony",
    "ImageIO",
    "MobileCoreServices",
    "CoreGraphics",
    "CoreFoundation",
    "coreLocation",
    "CoreMotion",
    "QuartzCore"
  ],
  "libraries": [
    "c++",
    "z",
    "icucore",
    "c++.1",
    "c++abi",
    "z.1.1.3"
  ],
  "vendored_frameworks": [
    "ISDZhimaFacePlugin/ISDZhimaFacePlugin.framework",
    "ZhimaSDK/frameworks/*"
  ],
  "resources": [
    "ZhimaSDK/resources/*"
  ],
  "dependencies": {
    "ISDFaceVerifyPlugin": [
      "~>1.2.0"
    ]
  }
}
