{
  "name": "ISDCertificationSDK",
  "version": "2.5.3",
  "summary": "Certification Framework",
  "homepage": "https://anquan.58.com/",
  "license": {
    "type": "MIT"
  },
  "authors": {
    "ChingHan": "chinghan9822@gmail.com"
  },
  "source": {
    "git": "http://igit.58corp.com/XxzlNative/ISDCertificationSDKPods.git",
    "tag": "2.5.3"
  },
  "platforms": {
    "ios": "8.0"
  },
  "requires_arc": true,
  "vendored_frameworks": "ISDCertificationSDK/ISDCertificationSDK.framework",
  "resources": "ISDResource/ISDResource.bundle",
  "dependencies": {
    "ISDDeviceFingerprintSDK": [
      "~> 3.0.8"
    ]
  }
}
