{
  "name": "FSJZBus",
  "version": "1.6",
  "summary": "FSJZBus is a tool for apps",
  "description": "This is a very small software library, offering a few methods to help with programming.",
  "homepage": "https://github.com/fuchina/FSJZBus",
  "license": {
    "type": "MIT",
    "file": "LICENSE"
  },
  "authors": {
    "fudon": "1245102331@qq.com"
  },
  "source": {
    "git": "https://github.com/fuchina/FSJZBus.git",
    "tag": "1.6"
  },
  "source_files": [
    "FSJZBus/classes/*.{h}",
    "FSJZBus/sources/*.{h,m}"
  ],
  "ios": {
    "vendored_libraries": "FSJZBus/libs/libFSJZBus1.a"
  },
  "resources": "FSJZBus/website_logos/*",
  "platforms": {
    "ios": "9.0"
  },
  "frameworks": [
    "UIKit",
    "AssetsLibrary",
    "MultipeerConnectivity",
    "WebKit",
    "Photos",
    "LocalAuthentication",
    "StoreKit",
    "GLKit"
  ],
  "dependencies": {
    "FSJZKit": [

    ],
    "FSLocation": [

    ],
    "FSGesture": [

    ],
    "YYKit": [

    ],
    "AMap3DMap": [
      "6.7.0"
    ]
  }
}
