{
  "name": "HAHConnect-iOS",
  "version": "0.0.21",
  "summary": "A short description of HAHConnect.",
  "homepage": "https://www.myhealthathand.com",
  "license": {
    "type": "MIT",
    "file": "LICENSE"
  },
  "authors": {
    "veer-suthar": "veer@nextgeni.com"
  },
  "source": {
    "http": "https://hahstageimages.s3.eu-west-1.amazonaws.com/hah_cloud/zip/805560316/hahconnect.zip?version=805560316"
  },
  "vendored_frameworks": "HAHConnect.framework",
  "swift_versions": "4.2",
  "platforms": {
    "ios": "10.0"
  },
  "dependencies": {
    "WebRTC": [
      "63.11.20455"
    ],
    "MDWamp": [
      "2.2.4"
    ],
    "CocoaLumberjack/Swift": [
      "3.4.2"
    ],
    "Cosmos": [
      "18.0.1"
    ],
    "NVActivityIndicatorView": [
      "4.6.1"
    ],
    "Pageboy": [
      "3.0.2"
    ],
    "CryptoSwift": [
      "0.14.0"
    ],
    "Alamofire": [
      "4.8.1"
    ],
    "SwiftyJSON": [
      "4.2.0"
    ],
    "Disk": [
      "0.4.0"
    ],
    "SwiftMessages": [
      "6.0.2"
    ],
    "FirebaseMLVisionTextModel": [
      "0.15.0"
    ],
    "EasyTipView": [
      "2.0.1"
    ],
    "SwiftDate": [
      "6.0.1"
    ],
    "ISPageControl": [
      "0.1.0"
    ],
    "WeScan": [
      "1.1.0"
    ],
    "TOCropViewController": [
      "2.4.0"
    ],
    "Kingfisher": [
      "5.4.0"
    ]
  },
  "swift_version": "4.2"
}
